{
  "name": "malaria",
  "title": "Malaria",
  "resources": [
    {
      "path": "malariadeath.csv",
      "pathType": "local",
      "name": "malariadeath",
      "format": "csv",
      "mediatype": "text/csv",
      "encoding": "windows-1252",
      "dialect": {
        "delimiter": ",",
        "quoteChar": "\""
      },
      "schema": {
        "fields": [
          {
            "name": "Country",
            "type": "string",
            "format": "default"
          },
          {
            "name": "Malaria Death 1980(per 1000 population)",
            "type": "number",
            "format": "default"
          },
          {
            "name": "Malaria Death 1990(per 1000 population)",
            "type": "number",
            "format": "default"
          },
          {
            "name": "Malaria Death 2000(per 1000 population)",
            "type": "number",
            "format": "default"
          },
          {
            "name": "Malaria Death 2010(per 1000 population)",
            "type": "number",
            "format": "default"
          }
        ],
        "missingValues": [
          ""
        ]
      }
    },
    {
      "path": "malariascraper.py",
      "pathType": "local",
      "name": "malariascraper",
      "format": "py",
      "encoding": "ISO-8859-1"
    }
  ],
  "licenses": [
    {
      "name": "ODC-PDDL",
      "path": "http://opendatacommons.org/licenses/pddl/",
      "title": "Open Data Commons Public Domain Dedication and License"
    }
  ],"views": [
    {
      "name": "Malaria Death Per Year",
      "title": "Malaria Death Per Year",
      "resources": ["malariadeath"],
      "specType": "simple",
      "spec": {
        "type": "line",
        "group": "Country",
        "series": [ "Malaria Death 1980(per 1000 population)", "Malaria Death 1990(per 1000 population)","Malaria Death 2000(per 1000 population)","Malaria Death 2010(per 1000 population)"]
    }
  }
  ]
  }